{
    "theme" : {
        "colors" : {
            "tmw_back_indicator" : "#ffffff",
            "tmw_biometric" : "#ffffff",
            "tmw_navigation_background" : "#ffa200",
            "tmw_page_header_text" : "#ffa200",
            "tmw_onboarding_background" : "#ffa200",
            "tmw_onboarding_background_text" : "#ffffff",
            "tmw_onboarding_button_background" : "#ffffff",
            "tmw_onboarding_button_text" : "#ffa200",
            "tmw_pay_button_background" : "#ffa200",
            "tmw_pay_button_text" : "#ffffff",
            "tmw_primary_background" : "#ffa200",
            "tmw_primary_background_text" : "#ffffff",
            "tmw_secondary_background" : "#000000",
            "tmw_secondary_background_text" : "#ffffff"
        }
    }
}
